-------------------------------------------------------------------------------
Test set: com.mkyong.BookControllerTest
-------------------------------------------------------------------------------
Tests run: 8, Failures: 0, Errors: 0, Skipped: 0, Time elapsed: 3.571 s - in com.mkyong.BookControllerTest
